…
Because `augmentCongress` links each detected name to ICPSR IDs from
voteview.com, we already have some information, like party
(`party_name`), state, district, and ideology scores (`nominate.dim1`)
for each match in the text of the congressional record.

``` r
full_join(cr, members) |> select(data_row_id, match_id, bioname, icpsr, congress, state, district_code, party_name, nominate.dim1, url_txt)
```

    #> Joining, by = c("icpsr", "bioname", "pattern", "chamber", "congress", "first_name", "last_name", "state")

    #> # A tibble: 6,684 × 10
    #>    data_row_id match_id bioname                    icpsr congress state        district_code party_name       nominate.dim1 url_txt                                                                     
    #>    <chr>       <chr>    <chr>                      <dbl>    <dbl> <chr>                <int> <chr>                    <dbl> <chr>                                                                       
    #>  1 000002      000001   GRAVES, Samuel             20124      110 missouri                 6 Republican Party         0.442 https://www.congress.gov/117/crec/2007/03/01/modified/CREC-2007-03-01-pt1-P…
    #>  2 000003      000002   UDALL, Mark                29906      110 colorado                 2 Democratic Party        -0.353 https://www.congress.gov/117/crec/2007/03/01/modified/CREC-2007-03-01-pt1-P…
    #>  3 000004      000003   LANGEVIN, James            20136      110 rhode island             2 Democratic Party        -0.375 https://www.congress.gov/117/crec/2007/03/01/modified/CREC-2007-03-01-pt1-P…
    #>  4 000005      000004   COSTA, Jim                 20501      110 california              20 Democratic Party        -0.191 https://www.congress.gov/117/crec/2007/03/01/modified/CREC-2007-03-01-pt1-P…
    #>  5 000006      000005   GRAVES, Samuel             20124      110 missouri                 6 Republican Party         0.442 https://www.congress.gov/117/crec/2007/03/01/modified/CREC-2007-03-01-pt1-P…
    #>  6 000007      000006   BISHOP, Sanford Dixon, Jr. 29339      110 georgia                  2 Democratic Party        -0.282 https://www.congress.gov/117/crec/2007/03/01/modified/CREC-2007-03-01-pt1-P…
    #>  7 000008      000007   TOWNS, Edolphus            15072      110 new york                10 Democratic Party        -0.519 https://www.congress.gov/117/crec/2007/03/01/modified/CREC-2007-03-01-pt1-P…
    #>  8 000009      000008   DAVIS, Thomas M., III      29576      110 virginia                11 Republican Party         0.282 https://www.congress.gov/117/crec/2007/03/01/modified/CREC-2007-03-01-pt1-P…
    #>  9 000010      000009   GRAVES, Samuel             20124      110 missouri                 6 Republican Party         0.442 https://www.congress.gov/117/crec/2007/03/01/modified/CREC-2007-03-01-pt1-P…
    #> 10 000011      000010   UDALL, Mark                29906      110 colorado                 2 Democratic Party        -0.353 https://www.congress.gov/117/crec/2007/03/01/modified/CREC-2007-03-01-pt1-P…
    #> # … with 6,674 more rows
…
